\boolfalse {citerequest}\boolfalse {citetracker}\boolfalse {pagetracker}\boolfalse {backtracker}\relax 
\babel@toc {czech}{}
\defcounter {refsection}{0}\relax 
\contentsline {section}{\numberline {1}Motivace}{3}% 
\defcounter {refsection}{0}\relax 
\contentsline {paragraph}{}{3}% 
\defcounter {refsection}{0}\relax 
\contentsline {paragraph}{}{3}% 
\defcounter {refsection}{0}\relax 
\contentsline {paragraph}{}{3}% 
\defcounter {refsection}{0}\relax 
\contentsline {section}{\numberline {2}Počátky elektřiny a magnetismu}{4}% 
\defcounter {refsection}{0}\relax 
\contentsline {paragraph}{}{4}% 
\defcounter {refsection}{0}\relax 
\contentsline {paragraph}{}{4}% 
\defcounter {refsection}{0}\relax 
\contentsline {paragraph}{}{4}% 
\defcounter {refsection}{0}\relax 
\contentsline {section}{\numberline {3}Michael Faraday}{5}% 
\defcounter {refsection}{0}\relax 
\contentsline {paragraph}{}{5}% 
\defcounter {refsection}{0}\relax 
\contentsline {paragraph}{}{5}% 
\defcounter {refsection}{0}\relax 
\contentsline {paragraph}{}{6}% 
\defcounter {refsection}{0}\relax 
\contentsline {paragraph}{}{6}% 
\defcounter {refsection}{0}\relax 
\contentsline {paragraph}{}{6}% 
\defcounter {refsection}{0}\relax 
\contentsline {paragraph}{}{6}% 
\defcounter {refsection}{0}\relax 
\contentsline {paragraph}{}{6}% 
\defcounter {refsection}{0}\relax 
\contentsline {paragraph}{}{7}% 
\defcounter {refsection}{0}\relax 
\contentsline {paragraph}{}{7}% 
\defcounter {refsection}{0}\relax 
\contentsline {section}{\numberline {4}James Clerk Maxwell}{8}% 
\defcounter {refsection}{0}\relax 
\contentsline {paragraph}{}{8}% 
\defcounter {refsection}{0}\relax 
\contentsline {paragraph}{}{9}% 
\defcounter {refsection}{0}\relax 
\contentsline {paragraph}{}{9}% 
\defcounter {refsection}{0}\relax 
\contentsline {paragraph}{}{9}% 
\defcounter {refsection}{0}\relax 
\contentsline {paragraph}{}{10}% 
\defcounter {refsection}{0}\relax 
\contentsline {paragraph}{}{10}% 
\defcounter {refsection}{0}\relax 
\contentsline {paragraph}{}{10}% 
\defcounter {refsection}{0}\relax 
\contentsline {section}{\numberline {5}Sjednocení magnetismu, elektřiny a optiky}{11}% 
\defcounter {refsection}{0}\relax 
\contentsline {subsection}{\numberline {5.1}Elektromagnetická indukce}{11}% 
\defcounter {refsection}{0}\relax 
\contentsline {paragraph}{}{11}% 
\defcounter {refsection}{0}\relax 
\contentsline {paragraph}{}{11}% 
\defcounter {refsection}{0}\relax 
\contentsline {subsection}{\numberline {5.2}Elektromagnetismus a optika}{12}% 
\defcounter {refsection}{0}\relax 
\contentsline {subsection}{\numberline {5.3}Maxwellovy rovnice}{13}% 
\defcounter {refsection}{0}\relax 
\contentsline {paragraph}{}{13}% 
\defcounter {refsection}{0}\relax 
\contentsline {paragraph}{}{14}% 
